Imran’s Postgrad repo - Geospatial Analysis3 - Spatially Constrained Clustering: ClustGeo method
…
Filtering the data set for just “Battles_2022_Incidents”

selected <- data2_long %>%
  select(admin2, Battles_2022_Incidents)

selected

# A tibble: 80 × 2
   admin2                      Battles_2022_Incidents
   <chr>                                        <int>
 1 Bago                                            12
 2 Bawlake                                         16
 3 Bhamo                                           54
 4 Danu Self-Administered Zone                     15
 5 Dawei                                          141
 6 Det Khi Na                                       0
 7 Falam                                           59
 8 Gangaw                                         143
 9 Hakha                                           43
10 Hinthada                                         6
# ℹ 70 more rows
…
