Imran’s Postgrad repo - Geospatial Analysis1 - Local Measures of Spatial Autocorrelation
…
lisa <- wm_q %>% 
  mutate(local_moran = local_moran(
    Incidents, nb, wt, nsim = 99),
         .before = 1) %>%
  unnest(local_moran)

lisa

Simple feature collection with 80 features and 20 fields
Geometry type: MULTIPOLYGON
Dimension:     XY
Bounding box:  xmin: 92.1721 ymin: 9.696844 xmax: 101.17 ymax: 28.54554
Geodetic CRS:  WGS 84
# A tibble: 80 × 21
        ii      eii  var_ii   z_ii  p_ii p_ii_sim p_folded_sim skewness kurtosis
     <dbl>    <dbl>   <dbl>  <dbl> <dbl>    <dbl>        <dbl>    <dbl>    <dbl>
 1  0.264  -1.63e-2 0.0553   1.19  0.233     0.24         0.12   -1.43     4.26 
 2  0.451   2.41e-2 0.221    0.908 0.364     0.08         0.06   -2.36     6.93 
 3  0.432   4.45e-4 0.0908   1.43  0.152     0.02         0.01   -1.48     2.61 
 4  0.451   1.53e-2 0.101    1.37  0.170     0.02         0.01   -1.48     2.60 
 5  0.429  -1.87e-3 0.137    1.16  0.245     0.06         0.03   -1.62     2.40 
 6  0.436  -1.11e-2 0.122    1.28  0.200     0.02         0.01   -1.46     2.17 
 7  0.0242  2.74e-3 0.00260  0.420 0.674     0.88         0.44   -1.17     1.13 
 8 -0.185  -2.51e-2 0.0244  -1.03  0.305     0.3          0.15    0.713    0.298
 9  0.0509 -1.38e-3 0.00705  0.622 0.534     0.62         0.31   -1.13     1.86 
10 -0.0307  9.01e-4 0.00567 -0.419 0.675     0.76         0.38    1.98     5.72 
# ℹ 70 more rows
# ℹ 12 more variables: mean <fct>, median <fct>, pysal <fct>, nb <nb>,
#   wt <list>, DT <chr>, quarter <chr>, event_type <chr>, year <dbl>,
#   Incidents <dbl>, Fatalities <dbl>, geometry <MULTIPOLYGON [°]>
…
Next, we will compute the local Gi* by using the code below.

HCSA <- wm_idw %>% 
  mutate(local_Gi = local_gstar_perm(
    Incidents, nb, wt, nsim = 99),
         .before = 1) %>%
  unnest(local_Gi)
HCSA

Simple feature collection with 80 features and 18 fields
Geometry type: MULTIPOLYGON
Dimension:     XY
Bounding box:  xmin: 92.1721 ymin: 9.696844 xmax: 101.17 ymax: 28.54554
Geodetic CRS:  WGS 84
# A tibble: 80 × 19
   gi_star cluster    e_gi    var_gi std_dev p_value p_sim p_folded_sim skewness
     <dbl> <fct>     <dbl>     <dbl>   <dbl>   <dbl> <dbl>        <dbl>    <dbl>
 1  -1.29  Low     0.0118  0.0000519  -1.11    0.266  0.18         0.09     1.18
 2  -1.18  Low     0.00688 0.0000358  -1.15    0.250  0.08         0.01     1.07
 3  -1.78  Low     0.0103  0.0000410  -1.54    0.124  0.02         0.01     1.76
 4  -1.54  Low     0.0104  0.0000558  -1.40    0.163  0.02         0.01     1.74
 5  -1.48  Low     0.0101  0.0000580  -1.27    0.206  0.02         0.01     2.32
 6  -1.50  Low     0.00966 0.0000426  -1.43    0.152  0.04         0.01     1.19
 7  -0.537 Low     0.0129  0.0000549  -0.547   0.585  0.68         0.34     1.14
 8  -0.818 High    0.0138  0.0000428  -0.992   0.321  0.28         0.14     1.13
 9  -0.618 Low     0.0110  0.0000464  -0.452   0.651  0.66         0.33     1.59
10  -0.401 High    0.0122  0.0000402  -0.424   0.671  0.82         0.41     1.42
# ℹ 70 more rows
# ℹ 10 more variables: kurtosis <dbl>, nb <nb>, wts <list>, DT <chr>,
#   quarter <chr>, event_type <chr>, year <dbl>, Incidents <dbl>,
#   Fatalities <dbl>, geometry <MULTIPOLYGON [°]>
…
