Geospatial Analysis2 - Emerging Hot Spot Analysis – Imran’s Postgrad repo
…
Computing Gi*

We can use these new columns to manually calculate the local Gi* for each location. We can do this by grouping by year and using local_gstar_perm() of sfdep package. After which, we use unnest() to unnest gi_star column of the newly created gi_starts data.frame.

#for Quarterly admin 2
gi_stars3 <- Quarterly_nb %>% 
  group_by(quarter) %>% 
  mutate(gi_star = local_gstar_perm(
    Incidents, nb, wt)) %>% 
  tidyr::unnest(gi_star)

gi_stars3

# A tibble: 960 × 15
# Groups:   quarter [12]
   quarter DT      Incidents nb    wt    gi_star cluster    e_gi  var_gi std_dev
     <dbl> <chr>       <dbl> <lis> <lis>   <dbl> <fct>     <dbl>   <dbl>   <dbl>
 1   20211 Hintha…         0 <int> <dbl>  -0.938 Low     0.00926 1.46e-4 -0.766 
 2   20211 Labutta         0 <int> <dbl>  -0.645 Low     0.00598 1.91e-4 -0.432 
 3   20211 Maubin          0 <int> <dbl>  -0.938 Low     0.00941 1.52e-4 -0.764 
 4   20211 Myaung…         0 <int> <dbl>  -0.801 Low     0.00758 1.48e-4 -0.624 
 5   20211 Pathein         0 <int> <dbl>  -0.801 Low     0.00844 1.61e-4 -0.665 
 6   20211 Pyapon          0 <int> <dbl>  -0.801 Low     0.00890 1.96e-4 -0.636 
 7   20211 Bago            1 <int> <dbl>   0.321 Low     0.0113  1.51e-4  0.450 
 8   20211 Taungoo         8 <int> <dbl>   0.432 High    0.0217  1.42e-4 -0.320 
 9   20211 Pyay            0 <int> <dbl>  -0.337 Low     0.00911 1.62e-4 -0.113 
10   20211 Thayar…         0 <int> <dbl>  -0.270 Low     0.00925 1.75e-4 -0.0466
# ℹ 950 more rows
# ℹ 5 more variables: p_value <dbl>, p_sim <dbl>, p_folded_sim <dbl>,
#   skewness <dbl>, kurtosis <dbl>
…
We can replicate this for each location by using group_by() of dplyr package.

Admin 2 districts-quarterly

ehsa3 <- gi_stars3 %>%
  group_by(DT) %>%
  summarise(mk = list(
    unclass(
      Kendall::MannKendall(gi_star)))) %>%
  tidyr::unnest_wider(mk)

ehsa3

# A tibble: 80 × 6
   DT                              tau     sl     S     D  varS
   <chr>                         <dbl>  <dbl> <dbl> <dbl> <dbl>
 1 Bago                        -0.0606 0.837     -4  66.0  213.
 2 Bawlake                     -0.333  0.150    -22  66.0  213.
 3 Bhamo                       -0.303  0.193    -20  66.0  213.
 4 Danu Self-Administered Zone -0.394  0.0865   -26  66.0  213.
 5 Dawei                        0.515  0.0236    34  66.0  213.
 6 Det Khi Na                  -0.212  0.373    -14  66.0  213.
 7 Falam                       -0.333  0.150    -22  66.0  213.
 8 Gangaw                       0.121  0.631      8  66.0  213.
 9 Hakha                       -0.0303 0.945     -2  66.0  213.
10 Hinthada                    -0.242  0.304    -16  66.0  213.
# ℹ 70 more rows
…
The k argument is used to specify the number of time lags which is set to 1 by default.

Lastly, nsim map numbers of simulation to be performed.

ehsa3 <- emerging_hotspot_analysis(
  x = Quarterly_spt, 
  .var = "Incidents", 
  k = 1,
  nsim = 99
)

print(ehsa3)

# A tibble: 80 × 4
   location       tau p_value classification     
   <chr>        <dbl>   <dbl> <chr>              
 1 Hinthada    0.152   0.537  no pattern detected
 2 Labutta    -0.242   0.304  no pattern detected
 3 Maubin     -0.364   0.115  sporadic hotspot   
 4 Myaungmya  -0.364   0.115  no pattern detected
 5 Pathein     0.545   0.0164 no pattern detected
 6 Pyapon      0       1      sporadic coldspot  
 7 Bago        0       1      no pattern detected
 8 Taungoo     0.212   0.373  oscilating hotspot 
 9 Pyay        0.0303  0.945  sporadic hotspot   
10 Thayarwady -0.152   0.537  sporadic coldspot  
# ℹ 70 more rows
…
